{
    "positions": [5.0, 10.0, 21.0, 32.0, 36.0, 50.0, 105.0, 110.0, 121.0, 132.0, 136.0, 150.0, 200.0, 250, 300, 350, 400, 500, 600, 700, 800, 1000],
    "lines": [
        {"bottom" : 50.0, "top": 5.0},
        {"bottom" : 70.0, "top": 51.0},
        {"bottom" : 100.0, "top": 75.0},
        {"bottom" : 130.0, "top": 120.0},
        {"bottom" : 290.0, "top": 150.0},
        {"bottom" : 400.0, "top": 310.0}
    ]
}
