0.572165,1.1
1.087673,1.2
1.415571,1.3
1.711783,1.4
2.047652,2.1
2.511632,2.2
3.006817,2.3
3.327743,2.4
3.679477,3.1
4.007347,3.2
4.407461,3.3
4.783335,3.4
5.175504,4.1
5.511375,4.2
5.86351,4.3
6.215509,4.4
6.607219,5.1
6.927367,5.2
7.231642,5.3
7.550846,5.4
7.903392,6.1
8.231281,6.2
8.615239,6.3
8.943405,6.4
9.318935,7.1
9.671332,7.2
10.03084,7.3
10.391177,7.4
10.727166,8.1
11.06285,8.2
11.439324,8.3
11.759168,8.4
12.103156,9.1
12.455193,9.2
12.807282,9.3
13.135182,9.4
13.487054,10.1
13.839277,10.2
14.183234,10.3
14.503176,10.4
14.846975,11.1
15.166985,11.2
15.503321,11.3
15.846762,11.4
16.199018,12.1
16.54292,12.2
16.878963,12.3
17.223082,12.4
17.607226,13.1
17.959109,13.2
18.310963,13.3
18.647176,13.4
19.015065,14.1
19.366874,14.2
19.727036,14.3
20.062583,14.4
20.415039,15.1
20.774973,15.2
21.118805,15.3
21.462657,15.4
21.806893,16.1
22.142932,16.2
22.510738,16.3
22.870933,16.4
23.214987,17.1
23.542808,17.2
23.854657,17.3
24.214878,17.4
24.566669,18.1
24.918755,18.2
25.262075,18.3
25.590682,18.4
25.95083,19.1
26.29472,19.2
26.638786,19.3
26.9904,19.4
27.366558,20.1
27.710576,20.2
28.070615,20.3
28.414703,20.4
28.782736,21.1
29.102606,21.2
29.43041,21.3
29.790476,21.4
30.174587,22.1
30.510614,22.2
30.878441,22.3
31.262422,22.4
31.622586,23.1
31.966462,23.2
32.31849,23.3
32.638403,23.4
32.990214,24.1
33.349613,24.2
33.702394,24.3
33.998443,24.4
34.342424,25.1
34.686322,25.2
35.022282,25.3
35.342436,25.4
35.717389,26.1
36.054149,26.2
36.37441,26.3
36.702382,26.4
37.022376,27.1
37.37451,27.2
37.742213,27.3
38.054319,27.4
38.39852,28.1
38.758241,28.2
39.118124,28.3
39.438282,28.4
39.805798,29.1
40.150109,29.2
40.51049,29.3
40.830294,29.4
41.182141,30.1
41.518421,30.2
41.870174,30.3
42.198058,30.4
42.542091,31.1
42.877547,31.2
43.221637,31.3
43.566465,31.4
43.910099,32.1
44.254086,32.2
44.598167,32.3
44.925982,32.4
45.30191,33.1
45.630139,33.2
45.966093,33.3
46.301732,33.4
46.637638,34.1
46.98195,34.2
47.325935,34.3
47.670163,34.4
48.021824,35.1
48.373444,35.2
48.733876,35.3
49.078082,35.4
49.429669,36.1
49.750131,36.2
50.077984,36.3
50.389698,36.4
50.709667,37.1
50.997691,37.2
51.32596,37.3
51.637483,37.4
51.965858,38.1
52.270016,38.2
52.565523,38.3
52.86963,38.4
53.181845,39.1
53.485348,39.2
53.781715,39.3
54.101624,39.4
54.437473,40.1
54.725733,40.2
55.061514,40.3
55.357559,40.4
55.669553,41.1
55.973738,41.2
56.301726,41.3
56.581192,41.4
56.901455,42.1
57.189618,42.2
57.493467,42.3
57.78926,42.4
58.109907,43.1
58.413337,43.2
58.741626,43.3
59.037302,43.4
59.365536,44.1
59.677543,44.2
60.045711,44.3
60.341195,44.4
60.685512,45.1
61.005205,45.2
61.309455,45.3
61.605354,45.4
61.94114,46.1
62.237312,46.2
62.565413,46.3
62.87725,46.4
63.221384,47.1
63.508996,47.2
63.852591,47.3
64.14891,47.4
64.437202,48.1
64.733248,48.2
65.05279,48.3
65.357046,48.4
65.677201,49.1
65.972941,49.2
66.293303,49.3
66.588957,49.4
66.917146,50.1
67.236907,50.2
67.533015,50.3
67.837258,50.4
68.148795,51.1
68.452964,51.2
68.797174,51.3
69.101246,51.4
69.444843,52.1
69.757353,52.2
70.09298,52.3
70.396824,52.4
70.724904,53.1
71.036959,53.2
71.372793,53.3
71.685086,53.4
72.005146,54.1
72.293074,54.2
72.613173,54.3
72.925066,54.4
73.244883,55.1
73.565112,55.2
73.868716,55.3
74.180484,55.4
74.493419,56.1
74.772876,56.2
75.108394,56.3
75.381,56.4
75.692843,57.1
75.980847,57.2
76.277145,57.3
76.588968,57.4
76.861013,58.1
77.188694,58.2
77.492935,58.3
77.804746,58.4
78.100964,59.1
78.404999,59.2
78.732434,59.3
79.020719,59.4
79.372646,60.1
79.668655,60.2
79.988839,60.3
80.284452,60.4
80.620788,61.1
80.89272,61.2
81.236569,61.3
81.516684,61.4
81.828546,62.1
82.124202,62.2
82.436504,62.3
82.740767,62.4
83.060335,63.1
83.340735,63.2
83.700854,63.3
83.996626,63.4
84.316395,64.1
84.628167,64.2
84.92464,64.3
85.204467,64.4
85.524376,65.1
85.852418,65.2
86.196306,65.3
86.492595,65.4
86.836278,66.1
87.164281,66.2
87.492574,66.3
87.772344,66.4
88.11634,67.1
88.428557,67.2
88.716507,67.3
89.028516,67.4
89.356299,68.1
89.6603,68.2
89.996269,68.3
90.276379,68.4
90.596404,69.1
90.891874,69.2
91.196411,69.3
91.500499,69.4
91.82802,70.1
92.132004,70.2
92.436272,70.3
92.708346,70.4
93.036049,71.1
93.324051,71.2
93.636092,71.3
93.939563,71.4
94.235448,72.1
94.540341,72.2
94.844353,72.3
95.148122,72.4
95.484373,73.1
95.780233,73.2
96.116034,73.3
96.42818,73.4
96.708016,74.1
96.996195,74.2
97.331655,74.3
97.644114,74.4
97.93225,75.1
98.228221,75.2
98.532065,75.3
98.812116,75.4
99.131559,76.1
99.419927,76.2
99.732047,76.3
100.035596,76.4
100.348079,77.1
100.651793,77.2
100.947829,77.3
101.268204,77.4
101.596197,78.1
101.907531,78.2
102.211836,78.3
102.500105,78.4
102.819538,79.1
103.107981,79.2
103.419982,79.3
103.707771,79.4
104.035712,80.1
104.331099,80.2
104.651864,80.3
104.955654,80.4
105.267847,81.1
105.58776,81.2
105.915504,81.3
106.211676,81.4
106.563842,82.1
106.875574,82.2
107.211321,82.3
107.508033,82.4
107.819606,83.1
108.139306,83.2
108.451908,83.3
108.731373,83.4
109.051672,84.1
109.32345,84.2
109.635461,84.3
109.93923,84.4
110.259686,85.1
110.555428,85.2
110.851518,85.3
111.146493,85.4
111.47569,86.1
111.77145,86.2
112.067547,86.3
112.387646,86.4
112.715478,87.1
113.019328,87.2
113.363266,87.3
113.667572,87.4
113.963746,88.1
114.267729,88.2
114.579611,88.3
114.883476,88.4
115.179455,89.1
115.475567,89.2
115.787618,89.3
116.091384,89.4
116.387318,90.1
116.691385,90.2
117.035418,90.3
117.323285,90.4
117.667194,91.1
117.979346,91.2
118.267422,91.3
118.587206,91.4
118.875485,92.1
119.18749,92.2
119.467359,92.3
119.739357,92.4
120.059425,93.1
120.347392,93.2
120.683241,93.3
120.979138,93.4
121.275214,94.1
121.595023,94.2
121.898519,94.3
122.19518,94.4
122.539123,95.1
122.891059,95.2
123.203274,95.3
123.49872,95.4
123.827084,96.1
124.146999,96.2
124.474338,96.3
124.762386,96.4
125.091239,97.1
125.443152,97.2
125.755173,97.3
126.066949,97.4
126.370947,98.1
126.651058,98.2
126.955028,98.3
127.258832,98.4
127.587052,99.1
127.931105,99.2
128.267217,99.3
128.555176,99.4
128.874856,100.1
129.291088,100.2
129.586953,100.3
129.906761,100.4
130.226945,101.1
130.530857,101.2
130.843121,101.3
131.178905,101.4
131.48276,102.1
131.770928,102.2
132.082479,102.3
132.410847,102.4
132.762751,103.1
133.098989,103.2
133.378461,103.3
133.682879,103.4
134.002769,104.1
134.330511,104.2
134.658545,104.3
134.946755,104.4
135.274622,105.1
135.594579,105.2
135.907029,105.3
136.226702,105.4
136.5627,106.1
136.898727,106.2
137.210351,106.3
137.506651,106.4
137.818545,107.1
138.186416,107.2
138.530651,107.3
138.84257,107.4
139.170485,108.1
139.506582,108.2
139.826614,108.3
140.138426,108.4
140.47461,109.1
140.842443,109.2
141.226434,109.3
141.53802,109.4
141.858712,110.1
142.210516,110.2
142.538267,110.3
142.954581,110.4
143.290649,111.1
143.625913,111.2
144.002512,111.3
144.490115,111.4
144.914511,112.1
145.289474,112.2
145.609961,112.3
145.970211,112.4
146.354476,113.1
146.6502,113.2
146.986317,113.3
147.306521,113.4
147.690459,114.1
148.130365,114.2
148.50597,114.3
148.962276,114.4
149.610227,115.1
