{
    "bars": [
        280.00,
        536.40,
        785.84,
        1082.47,
        1349.29,
        1654.16,
        1970.82,
        2247.06,
        2521.22,
        2849.06,
        3171.01,
        3463.52,
        3736.45,
        4050.42,
        4376.88,
        4659.71,
        4939.85,
        5263.56,
        5587.76,
        5909.49,
        6200.61,
        6477.57,
        6795.84,
        7115.88,
        7441.78,
        7734.22,
        8064.22,
        8324.93,
        8589.95,
        8875.82,
        9134.49,
        9334.08
    ],
    "onset-x": [
        {
            "onset": 0.00,
            "x": 294.44
        },
        {
            "onset": 0.50,
            "x": 321.48
        },
        {
            "onset": 0.75,
            "x": 343.93
        },
        {
            "onset": 1.00,
            "x": 362.99
        },
        {
            "onset": 1.50,
            "x": 389.28
        },
        {
            "onset": 2.00,
            "x": 417.60
        },
        {
            "onset": 2.50,
            "x": 447.70
        },
        {
            "onset": 2.75,
            "x": 466.76
        },
        {
            "onset": 3.00,
            "x": 485.81
        },
        {
            "onset": 3.50,
            "x": 514.00
        },
        {
            "onset": 4.00,
            "x": 548.93
        },
        {
            "onset": 4.50,
            "x": 579.03
        },
        {
            "onset": 4.75,
            "x": 601.44
        },
        {
            "onset": 5.00,
            "x": 620.63
        },
        {
            "onset": 5.50,
            "x": 648.82
        },
        {
            "onset": 6.00,
            "x": 674.70
        },
        {
            "onset": 6.25,
            "x": 693.76
        },
        {
            "onset": 6.50,
            "x": 712.82
        },
        {
            "onset": 7.50,
            "x": 750.14
        },
        {
            "onset": 7.75,
            "x": 769.20
        },
        {
            "onset": 8.00,
            "x": 797.22
        },
        {
            "onset": 8.25,
            "x": 819.34
        },
        {
            "onset": 8.50,
            "x": 841.75
        },
        {
            "onset": 8.75,
            "x": 867.27
        },
        {
            "onset": 9.00,
            "x": 886.33
        },
        {
            "onset": 9.25,
            "x": 905.39
        },
        {
            "onset": 9.50,
            "x": 924.45
        },
        {
            "onset": 9.75,
            "x": 943.51
        },
        {
            "onset": 10.00,
            "x": 962.56
        },
        {
            "onset": 10.50,
            "x": 992.66
        },
        {
            "onset": 10.75,
            "x": 1011.71
        },
        {
            "onset": 11.00,
            "x": 1030.77
        },
        {
            "onset": 11.50,
            "x": 1058.96
        },
        {
            "onset": 12.00,
            "x": 1095.83
        },
        {
            "onset": 12.50,
            "x": 1124.98
        },
        {
            "onset": 12.75,
            "x": 1150.50
        },
        {
            "onset": 13.00,
            "x": 1169.56
        },
        {
            "onset": 13.50,
            "x": 1197.75
        },
        {
            "onset": 14.00,
            "x": 1224.11
        },
        {
            "onset": 14.25,
            "x": 1243.16
        },
        {
            "onset": 14.50,
            "x": 1262.22
        },
        {
            "onset": 15.00,
            "x": 1290.41
        },
        {
            "onset": 15.50,
            "x": 1316.70
        },
        {
            "onset": 15.75,
            "x": 1335.76
        },
        {
            "onset": 16.00,
            "x": 1362.37
        },
        {
            "onset": 16.50,
            "x": 1392.46
        },
        {
            "onset": 16.75,
            "x": 1411.52
        },
        {
            "onset": 17.00,
            "x": 1430.57
        },
        {
            "onset": 17.25,
            "x": 1448.84
        },
        {
            "onset": 17.50,
            "x": 1467.90
        },
        {
            "onset": 17.75,
            "x": 1486.96
        },
        {
            "onset": 18.00,
            "x": 1506.01
        },
        {
            "onset": 18.25,
            "x": 1525.07
        },
        {
            "onset": 18.50,
            "x": 1544.13
        },
        {
            "onset": 18.75,
            "x": 1563.19
        },
        {
            "onset": 19.00,
            "x": 1582.24
        },
        {
            "onset": 19.25,
            "x": 1599.40
        },
        {
            "onset": 19.50,
            "x": 1618.46
        },
        {
            "onset": 19.75,
            "x": 1637.52
        },
        {
            "onset": 20.00,
            "x": 1667.24
        },
        {
            "onset": 20.25,
            "x": 1689.65
        },
        {
            "onset": 20.50,
            "x": 1708.71
        },
        {
            "onset": 20.75,
            "x": 1727.76
        },
        {
            "onset": 21.00,
            "x": 1746.82
        },
        {
            "onset": 21.25,
            "x": 1763.98
        },
        {
            "onset": 21.50,
            "x": 1783.03
        },
        {
            "onset": 21.75,
            "x": 1802.09
        },
        {
            "onset": 22.00,
            "x": 1826.25
        },
        {
            "onset": 22.25,
            "x": 1845.31
        },
        {
            "onset": 22.50,
            "x": 1864.37
        },
        {
            "onset": 22.75,
            "x": 1883.42
        },
        {
            "onset": 23.00,
            "x": 1902.48
        },
        {
            "onset": 23.50,
            "x": 1932.57
        },
        {
            "onset": 23.75,
            "x": 1954.98
        },
        {
            "onset": 24.00,
            "x": 1985.02
        },
        {
            "onset": 24.50,
            "x": 2012.06
        },
        {
            "onset": 24.75,
            "x": 2034.51
        },
        {
            "onset": 25.00,
            "x": 2053.50
        },
        {
            "onset": 25.25,
            "x": 2072.55
        },
        {
            "onset": 25.50,
            "x": 2091.61
        },
        {
            "onset": 25.75,
            "x": 2110.67
        },
        {
            "onset": 26.00,
            "x": 2129.73
        },
        {
            "onset": 26.50,
            "x": 2158.42
        },
        {
            "onset": 26.75,
            "x": 2177.47
        },
        {
            "onset": 27.00,
            "x": 2196.53
        },
        {
            "onset": 27.50,
            "x": 2224.72
        },
        {
            "onset": 28.00,
            "x": 2261.05
        },
        {
            "onset": 28.50,
            "x": 2289.10
        },
        {
            "onset": 28.75,
            "x": 2311.55
        },
        {
            "onset": 29.00,
            "x": 2330.61
        },
        {
            "onset": 29.50,
            "x": 2358.80
        },
        {
            "onset": 30.00,
            "x": 2386.36
        },
        {
            "onset": 30.25,
            "x": 2405.42
        },
        {
            "onset": 30.50,
            "x": 2424.47
        },
        {
            "onset": 30.75,
            "x": 2443.53
        },
        {
            "onset": 31.00,
            "x": 2462.59
        },
        {
            "onset": 31.50,
            "x": 2488.88
        },
        {
            "onset": 31.75,
            "x": 2507.93
        },
        {
            "onset": 32.00,
            "x": 2534.78
        },
        {
            "onset": 32.25,
            "x": 2555.74
        },
        {
            "onset": 32.50,
            "x": 2578.19
        },
        {
            "onset": 32.75,
            "x": 2603.72
        },
        {
            "onset": 33.00,
            "x": 2622.78
        },
        {
            "onset": 33.25,
            "x": 2641.83
        },
        {
            "onset": 33.50,
            "x": 2660.89
        },
        {
            "onset": 33.75,
            "x": 2679.95
        },
        {
            "onset": 34.00,
            "x": 2699.01
        },
        {
            "onset": 34.25,
            "x": 2718.07
        },
        {
            "onset": 34.50,
            "x": 2737.12
        },
        {
            "onset": 34.75,
            "x": 2756.18
        },
        {
            "onset": 35.00,
            "x": 2774.59
        },
        {
            "onset": 35.25,
            "x": 2794.23
        },
        {
            "onset": 35.50,
            "x": 2813.29
        },
        {
            "onset": 35.75,
            "x": 2832.34
        },
        {
            "onset": 36.00,
            "x": 2863.26
        },
        {
            "onset": 36.25,
            "x": 2884.22
        },
        {
            "onset": 36.50,
            "x": 2903.28
        },
        {
            "onset": 36.75,
            "x": 2925.73
        },
        {
            "onset": 37.00,
            "x": 2944.79
        },
        {
            "onset": 37.25,
            "x": 2963.84
        },
        {
            "onset": 37.50,
            "x": 2982.90
        },
        {
            "onset": 37.75,
            "x": 3001.96
        },
        {
            "onset": 38.00,
            "x": 3020.88
        },
        {
            "onset": 38.25,
            "x": 3039.94
        },
        {
            "onset": 38.50,
            "x": 3059.00
        },
        {
            "onset": 38.75,
            "x": 3078.05
        },
        {
            "onset": 39.00,
            "x": 3096.53
        },
        {
            "onset": 39.25,
            "x": 3116.17
        },
        {
            "onset": 39.50,
            "x": 3135.23
        },
        {
            "onset": 39.75,
            "x": 3154.29
        },
        {
            "onset": 40.00,
            "x": 3185.00
        },
        {
            "onset": 40.25,
            "x": 3205.96
        },
        {
            "onset": 40.50,
            "x": 3225.02
        },
        {
            "onset": 40.75,
            "x": 3244.07
        },
        {
            "onset": 41.00,
            "x": 3263.13
        },
        {
            "onset": 41.25,
            "x": 3287.29
        },
        {
            "onset": 41.50,
            "x": 3306.35
        },
        {
            "onset": 41.75,
            "x": 3325.40
        },
        {
            "onset": 42.00,
            "x": 3344.46
        },
        {
            "onset": 42.50,
            "x": 3373.92
        },
        {
            "onset": 42.75,
            "x": 3392.98
        },
        {
            "onset": 43.00,
            "x": 3412.04
        },
        {
            "onset": 43.50,
            "x": 3440.23
        },
        {
            "onset": 44.00,
            "x": 3477.51
        },
        {
            "onset": 44.50,
            "x": 3505.56
        },
        {
            "onset": 44.75,
            "x": 3524.62
        },
        {
            "onset": 45.00,
            "x": 3543.68
        },
        {
            "onset": 45.50,
            "x": 3571.87
        },
        {
            "onset": 46.00,
            "x": 3598.65
        },
        {
            "onset": 46.25,
            "x": 3617.71
        },
        {
            "onset": 46.50,
            "x": 3636.91
        },
        {
            "onset": 46.75,
            "x": 3655.97
        },
        {
            "onset": 47.00,
            "x": 3675.02
        },
        {
            "onset": 47.50,
            "x": 3701.31
        },
        {
            "onset": 47.75,
            "x": 3720.37
        },
        {
            "onset": 48.00,
            "x": 3750.00
        },
        {
            "onset": 48.25,
            "x": 3767.16
        },
        {
            "onset": 48.50,
            "x": 3786.21
        },
        {
            "onset": 48.75,
            "x": 3805.27
        },
        {
            "onset": 49.00,
            "x": 3824.47
        },
        {
            "onset": 49.25,
            "x": 3843.53
        },
        {
            "onset": 49.50,
            "x": 3862.59
        },
        {
            "onset": 49.75,
            "x": 3881.64
        },
        {
            "onset": 50.00,
            "x": 3900.70
        },
        {
            "onset": 50.25,
            "x": 3919.76
        },
        {
            "onset": 50.50,
            "x": 3938.82
        },
        {
            "onset": 50.75,
            "x": 3957.87
        },
        {
            "onset": 51.00,
            "x": 3976.93
        },
        {
            "onset": 51.25,
            "x": 3995.99
        },
        {
            "onset": 51.50,
            "x": 4015.05
        },
        {
            "onset": 51.75,
            "x": 4037.50
        },
        {
            "onset": 52.00,
            "x": 4064.72
        },
        {
            "onset": 52.25,
            "x": 4081.88
        },
        {
            "onset": 52.50,
            "x": 4100.93
        },
        {
            "onset": 52.75,
            "x": 4119.99
        },
        {
            "onset": 53.00,
            "x": 4139.05
        },
        {
            "onset": 53.25,
            "x": 4158.11
        },
        {
            "onset": 53.50,
            "x": 4177.16
        },
        {
            "onset": 53.75,
            "x": 4199.62
        },
        {
            "onset": 54.00,
            "x": 4218.68
        },
        {
            "onset": 54.25,
            "x": 4242.83
        },
        {
            "onset": 54.50,
            "x": 4261.89
        },
        {
            "onset": 54.75,
            "x": 4280.95
        },
        {
            "onset": 55.00,
            "x": 4300.01
        },
        {
            "onset": 55.25,
            "x": 4319.06
        },
        {
            "onset": 55.50,
            "x": 4341.52
        },
        {
            "onset": 55.75,
            "x": 4363.97
        },
        {
            "onset": 56.00,
            "x": 4390.52
        },
        {
            "onset": 56.50,
            "x": 4419.34
        },
        {
            "onset": 56.75,
            "x": 4444.87
        },
        {
            "onset": 57.00,
            "x": 4463.93
        },
        {
            "onset": 57.25,
            "x": 4482.99
        },
        {
            "onset": 57.50,
            "x": 4502.05
        },
        {
            "onset": 57.75,
            "x": 4521.10
        },
        {
            "onset": 58.00,
            "x": 4540.16
        },
        {
            "onset": 58.50,
            "x": 4568.85
        },
        {
            "onset": 58.75,
            "x": 4587.91
        },
        {
            "onset": 59.00,
            "x": 4606.96
        },
        {
            "onset": 59.50,
            "x": 4635.15
        },
        {
            "onset": 60.00,
            "x": 4673.05
        },
        {
            "onset": 60.50,
            "x": 4701.11
        },
        {
            "onset": 60.75,
            "x": 4726.63
        },
        {
            "onset": 61.00,
            "x": 4745.69
        },
        {
            "onset": 61.50,
            "x": 4773.88
        },
        {
            "onset": 62.00,
            "x": 4800.85
        },
        {
            "onset": 62.25,
            "x": 4819.90
        },
        {
            "onset": 62.50,
            "x": 4838.96
        },
        {
            "onset": 62.75,
            "x": 4858.02
        },
        {
            "onset": 63.00,
            "x": 4877.08
        },
        {
            "onset": 63.50,
            "x": 4904.32
        },
        {
            "onset": 63.75,
            "x": 4923.38
        },
        {
            "onset": 64.00,
            "x": 4952.76
        },
        {
            "onset": 64.50,
            "x": 4982.21
        },
        {
            "onset": 64.75,
            "x": 5004.67
        },
        {
            "onset": 65.00,
            "x": 5023.72
        },
        {
            "onset": 65.25,
            "x": 5041.99
        },
        {
            "onset": 65.50,
            "x": 5063.82
        },
        {
            "onset": 65.75,
            "x": 5089.93
        },
        {
            "onset": 66.00,
            "x": 5108.40
        },
        {
            "onset": 66.25,
            "x": 5131.39
        },
        {
            "onset": 66.50,
            "x": 5150.45
        },
        {
            "onset": 66.75,
            "x": 5169.51
        },
        {
            "onset": 67.00,
            "x": 5188.57
        },
        {
            "onset": 67.25,
            "x": 5205.72
        },
        {
            "onset": 67.50,
            "x": 5227.55
        },
        {
            "onset": 67.75,
            "x": 5247.19
        },
        {
            "onset": 68.00,
            "x": 5281.20
        },
        {
            "onset": 68.25,
            "x": 5300.83
        },
        {
            "onset": 68.50,
            "x": 5319.89
        },
        {
            "onset": 68.75,
            "x": 5342.34
        },
        {
            "onset": 69.00,
            "x": 5361.40
        },
        {
            "onset": 69.25,
            "x": 5386.93
        },
        {
            "onset": 69.50,
            "x": 5405.41
        },
        {
            "onset": 69.75,
            "x": 5425.05
        },
        {
            "onset": 70.00,
            "x": 5443.52
        },
        {
            "onset": 70.50,
            "x": 5470.18
        },
        {
            "onset": 70.75,
            "x": 5489.24
        },
        {
            "onset": 71.00,
            "x": 5508.30
        },
        {
            "onset": 71.25,
            "x": 5526.57
        },
        {
            "onset": 71.50,
            "x": 5548.40
        },
        {
            "onset": 71.75,
            "x": 5571.38
        },
        {
            "onset": 72.00,
            "x": 5600.30
        },
        {
            "onset": 72.25,
            "x": 5619.94
        },
        {
            "onset": 72.50,
            "x": 5639.00
        },
        {
            "onset": 72.75,
            "x": 5658.05
        },
        {
            "onset": 73.00,
            "x": 5677.11
        },
        {
            "onset": 73.25,
            "x": 5699.52
        },
        {
            "onset": 73.50,
            "x": 5718.00
        },
        {
            "onset": 73.75,
            "x": 5737.64
        },
        {
            "onset": 74.00,
            "x": 5756.26
        },
        {
            "onset": 74.25,
            "x": 5775.89
        },
        {
            "onset": 74.50,
            "x": 5794.95
        },
        {
            "onset": 74.75,
            "x": 5814.01
        },
        {
            "onset": 75.00,
            "x": 5833.14
        },
        {
            "onset": 75.25,
            "x": 5855.54
        },
        {
            "onset": 75.50,
            "x": 5874.02
        },
        {
            "onset": 75.75,
            "x": 5893.66
        },
        {
            "onset": 76.00,
            "x": 5922.47
        },
        {
            "onset": 76.25,
            "x": 5944.01
        },
        {
            "onset": 76.50,
            "x": 5963.07
        },
        {
            "onset": 76.75,
            "x": 5985.52
        },
        {
            "onset": 77.00,
            "x": 6004.58
        },
        {
            "onset": 77.25,
            "x": 6023.63
        },
        {
            "onset": 77.50,
            "x": 6042.69
        },
        {
            "onset": 77.75,
            "x": 6061.75
        },
        {
            "onset": 78.00,
            "x": 6080.81
        },
        {
            "onset": 78.50,
            "x": 6109.63
        },
        {
            "onset": 78.75,
            "x": 6128.69
        },
        {
            "onset": 79.00,
            "x": 6147.75
        },
        {
            "onset": 79.50,
            "x": 6175.94
        },
        {
            "onset": 80.00,
            "x": 6213.15
        },
        {
            "onset": 80.50,
            "x": 6241.20
        },
        {
            "onset": 80.75,
            "x": 6263.61
        },
        {
            "onset": 81.00,
            "x": 6282.81
        },
        {
            "onset": 81.50,
            "x": 6311.00
        },
        {
            "onset": 82.00,
            "x": 6338.42
        },
        {
            "onset": 82.25,
            "x": 6357.48
        },
        {
            "onset": 82.50,
            "x": 6376.53
        },
        {
            "onset": 82.75,
            "x": 6395.59
        },
        {
            "onset": 83.00,
            "x": 6414.65
        },
        {
            "onset": 83.50,
            "x": 6441.89
        },
        {
            "onset": 83.75,
            "x": 6460.95
        },
        {
            "onset": 84.00,
            "x": 6490.69
        },
        {
            "onset": 84.25,
            "x": 6509.75
        },
        {
            "onset": 84.50,
            "x": 6528.80
        },
        {
            "onset": 84.75,
            "x": 6551.21
        },
        {
            "onset": 85.00,
            "x": 6570.20
        },
        {
            "onset": 85.25,
            "x": 6589.26
        },
        {
            "onset": 85.50,
            "x": 6608.32
        },
        {
            "onset": 85.75,
            "x": 6627.37
        },
        {
            "onset": 86.00,
            "x": 6646.43
        },
        {
            "onset": 86.25,
            "x": 6667.39
        },
        {
            "onset": 86.50,
            "x": 6686.45
        },
        {
            "onset": 86.75,
            "x": 6705.51
        },
        {
            "onset": 87.00,
            "x": 6723.99
        },
        {
            "onset": 87.25,
            "x": 6743.63
        },
        {
            "onset": 87.50,
            "x": 6762.68
        },
        {
            "onset": 87.75,
            "x": 6781.74
        },
        {
            "onset": 88.00,
            "x": 6808.38
        },
        {
            "onset": 88.25,
            "x": 6827.44
        },
        {
            "onset": 88.50,
            "x": 6846.50
        },
        {
            "onset": 88.75,
            "x": 6868.91
        },
        {
            "onset": 89.00,
            "x": 6887.96
        },
        {
            "onset": 89.25,
            "x": 6907.02
        },
        {
            "onset": 89.50,
            "x": 6926.08
        },
        {
            "onset": 89.75,
            "x": 6945.14
        },
        {
            "onset": 90.00,
            "x": 6964.20
        },
        {
            "onset": 90.25,
            "x": 6985.16
        },
        {
            "onset": 90.50,
            "x": 7004.21
        },
        {
            "onset": 90.75,
            "x": 7023.27
        },
        {
            "onset": 91.00,
            "x": 7041.75
        },
        {
            "onset": 91.25,
            "x": 7061.39
        },
        {
            "onset": 91.50,
            "x": 7080.45
        },
        {
            "onset": 91.75,
            "x": 7099.50
        },
        {
            "onset": 92.00,
            "x": 7128.41
        },
        {
            "onset": 92.25,
            "x": 7147.47
        },
        {
            "onset": 92.50,
            "x": 7166.53
        },
        {
            "onset": 92.75,
            "x": 7185.59
        },
        {
            "onset": 93.00,
            "x": 7204.71
        },
        {
            "onset": 93.25,
            "x": 7227.17
        },
        {
            "onset": 93.50,
            "x": 7246.22
        },
        {
            "onset": 93.75,
            "x": 7264.33
        },
        {
            "onset": 94.00,
            "x": 7283.23
        },
        {
            "onset": 94.25,
            "x": 7304.05
        },
        {
            "onset": 94.50,
            "x": 7323.11
        },
        {
            "onset": 94.75,
            "x": 7342.16
        },
        {
            "onset": 95.00,
            "x": 7361.22
        },
        {
            "onset": 95.25,
            "x": 7380.28
        },
        {
            "onset": 95.50,
            "x": 7402.69
        },
        {
            "onset": 95.75,
            "x": 7425.10
        },
        {
            "onset": 96.00,
            "x": 7459.95
        },
        {
            "onset": 96.50,
            "x": 7489.09
        },
        {
            "onset": 96.75,
            "x": 7508.15
        },
        {
            "onset": 97.00,
            "x": 7526.63
        },
        {
            "onset": 97.50,
            "x": 7553.29
        },
        {
            "onset": 98.00,
            "x": 7581.48
        },
        {
            "onset": 98.25,
            "x": 7599.75
        },
        {
            "onset": 98.50,
            "x": 7622.16
        },
        {
            "onset": 98.75,
            "x": 7644.57
        },
        {
            "onset": 99.00,
            "x": 7663.76
        },
        {
            "onset": 99.25,
            "x": 7682.82
        },
        {
            "onset": 99.50,
            "x": 7701.88
        },
        {
            "onset": 99.75,
            "x": 7720.94
        },
        {
            "onset": 100.00,
            "x": 7748.22
        },
        {
            "onset": 100.25,
            "x": 7767.27
        },
        {
            "onset": 100.50,
            "x": 7788.23
        },
        {
            "onset": 100.75,
            "x": 7807.29
        },
        {
            "onset": 101.00,
            "x": 7826.35
        },
        {
            "onset": 101.25,
            "x": 7845.41
        },
        {
            "onset": 101.50,
            "x": 7864.47
        },
        {
            "onset": 101.75,
            "x": 7883.52
        },
        {
            "onset": 102.00,
            "x": 7905.93
        },
        {
            "onset": 102.25,
            "x": 7926.89
        },
        {
            "onset": 102.50,
            "x": 7945.95
        },
        {
            "onset": 102.75,
            "x": 7965.01
        },
        {
            "onset": 103.00,
            "x": 7984.00
        },
        {
            "onset": 103.25,
            "x": 8006.41
        },
        {
            "onset": 103.50,
            "x": 8028.82
        },
        {
            "onset": 103.75,
            "x": 8047.87
        },
        {
            "onset": 104.00,
            "x": 8077.78
        },
        {
            "onset": 104.50,
            "x": 8107.87
        },
        {
            "onset": 104.75,
            "x": 8130.28
        },
        {
            "onset": 105.00,
            "x": 8149.34
        },
        {
            "onset": 105.50,
            "x": 8177.53
        },
        {
            "onset": 106.00,
            "x": 8204.51
        },
        {
            "onset": 106.50,
            "x": 8233.14
        },
        {
            "onset": 106.75,
            "x": 8252.20
        },
        {
            "onset": 107.00,
            "x": 8271.25
        },
        {
            "onset": 107.50,
            "x": 8299.44
        },
        {
            "onset": 108.00,
            "x": 8343.10
        },
        {
            "onset": 108.25,
            "x": 8362.16
        },
        {
            "onset": 108.50,
            "x": 8381.22
        },
        {
            "onset": 108.75,
            "x": 8400.28
        },
        {
            "onset": 109.00,
            "x": 8419.33
        },
        {
            "onset": 109.50,
            "x": 8445.62
        },
        {
            "onset": 109.75,
            "x": 8464.68
        },
        {
            "onset": 110.00,
            "x": 8483.74
        },
        {
            "onset": 110.50,
            "x": 8511.93
        },
        {
            "onset": 111.00,
            "x": 8538.96
        },
        {
            "onset": 111.50,
            "x": 8565.99
        },
        {
            "onset": 112.00,
            "x": 8608.16
        },
        {
            "onset": 112.25,
            "x": 8625.31
        },
        {
            "onset": 112.50,
            "x": 8644.37
        },
        {
            "onset": 112.75,
            "x": 8661.53
        },
        {
            "onset": 113.00,
            "x": 8680.58
        },
        {
            "onset": 113.25,
            "x": 8699.64
        },
        {
            "onset": 113.50,
            "x": 8718.70
        },
        {
            "onset": 113.75,
            "x": 8737.76
        },
        {
            "onset": 114.00,
            "x": 8756.91
        },
        {
            "onset": 114.50,
            "x": 8786.91
        },
        {
            "onset": 114.75,
            "x": 8805.97
        },
        {
            "onset": 115.00,
            "x": 8825.02
        },
        {
            "onset": 115.50,
            "x": 8851.11
        },
        {
            "onset": 116.00,
            "x": 8889.78
        },
        {
            "onset": 116.50,
            "x": 8919.04
        },
        {
            "onset": 116.75,
            "x": 8941.49
        },
        {
            "onset": 117.00,
            "x": 8960.55
        },
        {
            "onset": 117.50,
            "x": 8987.58
        },
        {
            "onset": 118.00,
            "x": 9014.88
        },
        {
            "onset": 118.50,
            "x": 9044.03
        },
        {
            "onset": 118.75,
            "x": 9063.08
        },
        {
            "onset": 119.00,
            "x": 9082.21
        },
        {
            "onset": 119.50,
            "x": 9110.40
        },
        {
            "onset": 120.00,
            "x": 9153.28
        },
        {
            "onset": 120.25,
            "x": 9171.72
        },
        {
            "onset": 120.50,
            "x": 9190.77
        },
        {
            "onset": 121.00,
            "x": 9216.65
        },
        {
            "onset": 121.50,
            "x": 9244.84
        },
        {
            "onset": 121.75,
            "x": 9263.90
        },
        {
            "onset": 122.00,
            "x": 9286.58
        }
    ],
    "staffs": [
        {
            "bottom": 155.76,
            "notespos": {},
            "top": 53.36
        },
        {
            "bottom": 292.75,
            "notespos": {},
            "top": 190.34
        },
        {
            "bottom": 449.22,
            "notespos": {},
            "top": 346.81
        }
    ]
}
