{
    "composer": "W.-A. Mozart",
    "id": "k155",
    "sources": {
      "images" : [
        {
          "image": "k155.png",
          "positions": "positions.json",
          "type": "score"
        }
      ]
    },
    "time-signature": "4/4",
    "title": "String Quartet #02 in D major, K 155, mvt. 1"
}
