{
    "date-x": [
        {
            "date": 0,
            "x": 0
        },
        {
            "date": 71.865759637,
            "x": 3997
        }
    ],
    "staffs": [
        {
            "bottom": 95.0,
            "top": 5.0
        },
        {
            "bottom": 195.0,
            "top": 105.0
        },
        {
            "bottom": 295.0,
            "top": 205.0
        }
    ]
}